…
------------------------------------------------------------------------

## Action Status

```{.r }
ghclass::action_status(repos)

#> # A tibble: 42 × 5
#>    repo                          name        branch result  created            
#>    <chr>                         <chr>       <chr>  <chr>   <dttm>             
#>  1 Sta323-Sp22/hw01_lab01_team01 Repo Checks main   success 2022-01-26 22:18:42
#>  2 Sta323-Sp22/hw01_lab01_team02 Repo Checks main   success 2022-01-26 21:03:37
#>  3 Sta323-Sp22/hw01_lab01_team03 Repo Checks main   success 2022-01-28 04:01:17
#>  4 Sta323-Sp22/hw01_lab01_team04 Repo Checks main   success 2022-01-28 19:17:04
#>  5 Sta323-Sp22/hw01_lab01_team05 Repo Checks main   success 2022-01-28 19:24:01
#>  6 Sta323-Sp22/hw01_lab01_team06 Repo Checks main   success 2022-01-28 19:59:49
#>  7 Sta323-Sp22/hw01_lab01_team07 Repo Checks main   success 2022-01-28 04:27:54
#>  8 Sta323-Sp22/hw01_lab01_team08 Repo Checks main   success 2022-01-28 08:38:43
#>  9 Sta323-Sp22/hw01_lab02_team09 Repo Checks main   success 2022-01-27 05:42:33
#> 10 Sta323-Sp22/hw01_lab03_team10 Repo Checks main   success 2022-01-27 19:12:23
#> # … with 32 more rows
```
…
